\relax 
\providecommand\hyper@newdestlabel[2]{}
\providecommand\HyperFirstAtBeginDocument{\AtBeginDocument}
\HyperFirstAtBeginDocument{\ifx\hyper@anchor\@undefined
\global\let\oldcontentsline\contentsline
\gdef\contentsline#1#2#3#4{\oldcontentsline{#1}{#2}{#3}}
\global\let\oldnewlabel\newlabel
\gdef\newlabel#1#2{\newlabelxx{#1}#2}
\gdef\newlabelxx#1#2#3#4#5#6{\oldnewlabel{#1}{{#2}{#3}}}
\AtEndDocument{\ifx\hyper@anchor\@undefined
\let\contentsline\oldcontentsline
\let\newlabel\oldnewlabel
\fi}
\fi}
\global\let\hyper@last\relax 
\gdef\HyperFirstAtBeginDocument#1{#1}
\providecommand\HyField@AuxAddToFields[1]{}
\providecommand\HyField@AuxAddToCoFields[2]{}
\@writefile{toc}{\contentsline {chapter}{Inhaltsverzeichnis}{i}{Doc-Start}\protected@file@percent }
\@writefile{toc}{\contentsline {chapter}{\numberline {1}Kryptowährungen und deren Technik}{1}{chapter.1}\protected@file@percent }
\@writefile{lof}{\addvspace {10\p@ }}
\@writefile{lot}{\addvspace {10\p@ }}
\citation{Web:11}
\citation{Web:12}
\citation{Web:13}
\citation{Web:14}
\citation{Web:15}
\@writefile{toc}{\contentsline {section}{\numberline {1.1}Einleitung}{2}{section.1.1}\protected@file@percent }
\@writefile{toc}{\contentsline {subsection}{\numberline {1.1.1}Geschichte \& Entstehung}{2}{subsection.1.1.1}\protected@file@percent }
\citation{Web:16}
\citation{Web:23}
\citation{Web:24}
\citation{Web:17}
\citation{Web:18}
\citation{Web:17}
\citation{Web:17}
\citation{Web:22}
\@writefile{toc}{\contentsline {subsection}{\numberline {1.1.2}Vergleich zu alternativen Technologien}{4}{subsection.1.1.2}\protected@file@percent }
\citation{Web:25}
\citation{Web:26}
\citation{Web:29}
\@writefile{lof}{\contentsline {figure}{\numberline {1.1}{\ignorespaces Jährliche Kosten für ein Girokonto in Europa\relax }}{5}{figure.caption.3}\protected@file@percent }
\providecommand*\caption@xref[2]{\@setref\relax\@undefined{#1}}
\newlabel{fig:testsiegergirokontokosten}{{1.1}{5}{Jährliche Kosten für ein Girokonto in Europa\relax }{figure.caption.3}{}}
\citation{Web:27}
\citation{Web:28}
\citation{Web:29}
\citation{Web:30}
\citation{Web:30}
\citation{Web:19}
\citation{Web:19}
\citation{Web:20}
\citation{Web:21}
\citation{Web:32}
\citation{Web:31}
\@writefile{toc}{\contentsline {section}{\numberline {1.2}Genereller Aufbau Kryptowährungen}{9}{section.1.2}\protected@file@percent }
\@writefile{toc}{\contentsline {subsection}{\numberline {1.2.1}Distributed Ledger Technology}{9}{subsection.1.2.1}\protected@file@percent }
\@writefile{lof}{\contentsline {figure}{\numberline {1.2}{\ignorespaces Aufbau zentralisierte Ledger\relax }}{9}{figure.caption.4}\protected@file@percent }
\newlabel{fig:centralizedledger}{{1.2}{9}{Aufbau zentralisierte Ledger\relax }{figure.caption.4}{}}
\citation{Web:31}
\citation{Web:31}
\citation{Web:31}
\@writefile{lof}{\contentsline {figure}{\numberline {1.3}{\ignorespaces Aufbau dezentralisierte Ledger\relax }}{10}{figure.caption.5}\protected@file@percent }
\newlabel{fig:decentralizedledger}{{1.3}{10}{Aufbau dezentralisierte Ledger\relax }{figure.caption.5}{}}
\citation{Web:33}
\citation{Web:34}
\citation{Web:35}
\citation{Web:36}
\citation{Web:37}
\citation{Web:39}
\citation{Web:38}
\citation{Web:38}
\citation{Web:40}
\citation{Web:38}
\@writefile{lof}{\contentsline {figure}{\numberline {1.4}{\ignorespaces Ablauf einer digitalen Signatur\relax }}{14}{figure.caption.6}\protected@file@percent }
\newlabel{fig:digsignature}{{1.4}{14}{Ablauf einer digitalen Signatur\relax }{figure.caption.6}{}}
\citation{Web:43}
\citation{Web:44}
\citation{Web:45}
\citation{Web:46}
\citation{Web:47}
\@writefile{toc}{\contentsline {subsection}{\numberline {1.2.2}Blockchain}{15}{subsection.1.2.2}\protected@file@percent }
\citation{Web:48}
\citation{Web:48}
\citation{Web:04}
\citation{Web:10}
\citation{Web:04}
\citation{Web:10}
\citation{Web:05}
\citation{Web:77}
\citation{Web:78}
\citation{Web:79}
\citation{Web:78}
\citation{Web:51}
\citation{Web:54}
\citation{Web:49}
\citation{Web:49}
\@writefile{lof}{\contentsline {figure}{\numberline {1.5}{\ignorespaces Aufbau eines Blockes\relax }}{19}{figure.caption.7}\protected@file@percent }
\newlabel{fig:blockstructure}{{1.5}{19}{Aufbau eines Blockes\relax }{figure.caption.7}{}}
\citation{Web:50}
\citation{Web:53}
\@writefile{lof}{\contentsline {figure}{\numberline {1.6}{\ignorespaces Prinzip eines Merkle Baums\relax }}{20}{figure.caption.8}\protected@file@percent }
\newlabel{fig:merkle}{{1.6}{20}{Prinzip eines Merkle Baums\relax }{figure.caption.8}{}}
\citation{Web:55}
\citation{Web:41}
\citation{Web:42}
\citation{Web:57}
\citation{Web:57}
\citation{Web:15}
\citation{Web:15}
\citation{Web:56}
\citation{Web:58}
\@writefile{lof}{\contentsline {figure}{\numberline {1.7}{\ignorespaces Block auf andersbrownworth.com\relax }}{23}{figure.caption.9}\protected@file@percent }
\newlabel{fig:block01}{{1.7}{23}{Block auf andersbrownworth.com\relax }{figure.caption.9}{}}
\@writefile{lof}{\contentsline {figure}{\numberline {1.8}{\ignorespaces Die Transaktion T4 wurde hinzugefügt\relax }}{24}{figure.caption.10}\protected@file@percent }
\newlabel{fig:block02}{{1.8}{24}{Die Transaktion T4 wurde hinzugefügt\relax }{figure.caption.10}{}}
\@writefile{lof}{\contentsline {figure}{\numberline {1.9}{\ignorespaces Erneut validierter Block\relax }}{25}{figure.caption.11}\protected@file@percent }
\newlabel{fig:block03}{{1.9}{25}{Erneut validierter Block\relax }{figure.caption.11}{}}
\@writefile{lof}{\contentsline {figure}{\numberline {1.10}{\ignorespaces Ausgangssituation Blockchain\relax }}{26}{figure.caption.12}\protected@file@percent }
\newlabel{fig:blockchain01}{{1.10}{26}{Ausgangssituation Blockchain\relax }{figure.caption.12}{}}
\@writefile{lof}{\contentsline {figure}{\numberline {1.11}{\ignorespaces Dem Block Nr. 4 wurde eine neue Transaktion TX hinzugefügt\relax }}{26}{figure.caption.13}\protected@file@percent }
\newlabel{fig:blockchain02}{{1.11}{26}{Dem Block Nr. 4 wurde eine neue Transaktion TX hinzugefügt\relax }{figure.caption.13}{}}
\citation{Web:69}
\citation{Web:70}
\citation{Web:71}
\citation{Web:72}
\citation{Web:56}
\citation{Web:64}
\citation{Web:65}
\citation{Web:65}
\@writefile{lof}{\contentsline {figure}{\numberline {1.12}{\ignorespaces Wahrscheinlichkeit einer 51\%-Attacke\relax }}{29}{figure.caption.14}\protected@file@percent }
\newlabel{fig:52proba}{{1.12}{29}{Wahrscheinlichkeit einer 51\%-Attacke\relax }{figure.caption.14}{}}
\citation{Web:63}
\citation{Web:61}
\citation{Web:62}
\citation{Web:59}
\citation{Web:60}
\citation{Web:62}
\citation{Web:59}
\@writefile{lof}{\contentsline {figure}{\numberline {1.13}{\ignorespaces Soft-Fork Beispiel\relax }}{30}{figure.caption.15}\protected@file@percent }
\newlabel{fig:softfork}{{1.13}{30}{Soft-Fork Beispiel\relax }{figure.caption.15}{}}
\citation{Web:66}
\citation{Web:67}
\citation{Web:68}
\@writefile{lof}{\contentsline {figure}{\numberline {1.14}{\ignorespaces Hard-Fork Beispiel\relax }}{31}{figure.caption.16}\protected@file@percent }
\newlabel{fig:hardfork}{{1.14}{31}{Hard-Fork Beispiel\relax }{figure.caption.16}{}}
\citation{Web:73}
\citation{Web:74}
\citation{Web:75}
\citation{Web:76}
\@writefile{toc}{\contentsline {subsection}{\numberline {1.2.3}Softwareentwicklung in der Blockchain}{32}{subsection.1.2.3}\protected@file@percent }
\citation{Web:76}
\citation{Web:76}
\citation{Web:80}
\citation{Web:81}
\citation{Web:83}
\citation{Web:82}
\citation{Web:82}
\citation{Web:82}
\citation{Web:82}
\citation{Web:84}
\@writefile{lol}{\contentsline {lstlisting}{\numberline {1.1}Einfacher Smart-Contract zum Speichern einer Zahl \cite  {Web:82}}{34}{lstlisting.1.1}\protected@file@percent }
\citation{Web:85}
\citation{Web:86}
\citation{Web:86}
\citation{Web:87}
\citation{Web:87}
\citation{Web:87}
\citation{Web:87}
\citation{Web:78}
\@writefile{lof}{\contentsline {figure}{\numberline {1.15}{\ignorespaces Ethereum Account Aufbau\relax }}{36}{figure.caption.18}\protected@file@percent }
\newlabel{fig:ethaccount}{{1.15}{36}{Ethereum Account Aufbau\relax }{figure.caption.18}{}}
\citation{Web:78}
\citation{Web:88}
\citation{Web:88}
\citation{Web:88}
\citation{Web:90}
\citation{Web:89}
\citation{Web:130}
\citation{Web:89}
\citation{Web:89}
\citation{Web:03}
\citation{Web:03}
\citation{Web:01}
\@writefile{toc}{\contentsline {subsection}{\numberline {1.2.4}Digitale Vermögenswerte}{40}{subsection.1.2.4}\protected@file@percent }
\citation{Web:01}
\citation{Web:07}
\citation{Web:07}
\citation{Web:127}
\citation{Web:09}
\citation{Web:128}
\@writefile{lol}{\contentsline {lstlisting}{\numberline {1.2}ERC-20 Standard Interface \cite  {Web:129}}{42}{lstlisting.1.2}\protected@file@percent }
\citation{Web:129}
\citation{Web:129}
\citation{Web:129}
\citation{Web:129}
\@writefile{lol}{\contentsline {lstlisting}{\numberline {1.3}Mit dem Schlüsselwort 'in' wird das ERC-20 Interface implementiert. \cite  {Web:129}}{43}{lstlisting.1.3}\protected@file@percent }
\citation{Web:92}
\citation{Web:91}
\citation{Web:93}
\citation{Web:94}
\@writefile{toc}{\contentsline {section}{\numberline {1.3}Anwendungsbereiche von Blockchain}{44}{section.1.3}\protected@file@percent }
\@writefile{toc}{\contentsline {subsection}{\numberline {1.3.1}Kryptowährungen im Vergleich}{44}{subsection.1.3.1}\protected@file@percent }
\citation{Web:95}
\citation{Web:96}
\citation{Web:97}
\citation{Web:97}
\citation{Web:98}
\citation{Web:98}
\citation{Web:99}
\citation{Web:99}
\citation{Web:100}
\citation{Web:101}
\citation{Web:100}
\citation{Web:102}
\citation{Web:103}
\citation{Web:103}
\citation{Web:104}
\citation{Web:105}
\citation{Web:104}
\citation{Web:105}
\citation{Web:105}
\citation{Web:104}
\citation{Web:105}
\@writefile{lof}{\contentsline {figure}{\numberline {1.16}{\ignorespaces Smart-Contract Struktur von LINK\relax }}{49}{figure.caption.20}\protected@file@percent }
\newlabel{fig:linkcontracts}{{1.16}{49}{Smart-Contract Struktur von LINK\relax }{figure.caption.20}{}}
\citation{Web:106}
\citation{Web:107}
\citation{Web:108}
\citation{Web:109}
\citation{Web:109}
\citation{Web:110}
\citation{Web:111}
\citation{Web:112}
\citation{Web:113}
\citation{Web:114}
\citation{Web:115}
\citation{Web:115}
\citation{Web:116}
\citation{Web:117}
\citation{Web:119}
\@writefile{toc}{\contentsline {subsection}{\numberline {1.3.2}Dezentralisierte Apps}{52}{subsection.1.3.2}\protected@file@percent }
\citation{Web:118}
\citation{Web:117}
\citation{Web:119}
\citation{Web:120}
\citation{Web:121}
\citation{Web:08}
\citation{Web:08}
\citation{Web:122}
\citation{Web:123}
\citation{Web:24}
\citation{Web:125}
\citation{Web:126}
\@writefile{toc}{\contentsline {section}{\numberline {1.4}Fazit fürs Projekt ''Tradeplay''}{56}{section.1.4}\protected@file@percent }
\@writefile{toc}{\contentsline {chapter}{Anhang}{57}{section.1.4}\protected@file@percent }
\@writefile{toc}{\contentsline {section}{Abbildungsverzeichnis}{57}{section*.21}\protected@file@percent }
\@writefile{toc}{\contentsline {section}{Tabellenverzeichnis}{59}{section*.23}\protected@file@percent }
\citation{Web:82}
\citation{Web:129}
\citation{Web:129}
\@writefile{toc}{\contentsline {section}{Verzeichnis der Listings}{61}{section*.25}\protected@file@percent }
\bibcite{Web:01}{LS:Web01}
\bibcite{Web:02}{LS:Web02}
\bibcite{Web:03}{LS:Web03}
\bibcite{Web:04}{LS:Web04}
\bibcite{Web:05}{LS:Web05}
\bibcite{Web:06}{LS:Web06}
\bibcite{Web:07}{LS:Web07}
\bibcite{Web:08}{LS:Web08}
\@writefile{toc}{\contentsline {section}{Index}{63}{section*.27}\protected@file@percent }
\@writefile{toc}{\contentsline {section}{Literaturverzeichnis}{63}{section*.28}\protected@file@percent }
\bibcite{Web:09}{LS:Web09}
\bibcite{Web:10}{LS:Web10}
\bibcite{Web:11}{LS:Web11}
\bibcite{Web:12}{LS:Web12}
\bibcite{Web:13}{LS:Web13}
\bibcite{Web:14}{LS:Web14}
\bibcite{Web:15}{LS:Web15}
\bibcite{Web:16}{LS:Web16}
\bibcite{Web:17}{LS:Web17}
\bibcite{Web:18}{LS:Web18}
\bibcite{Web:19}{LS:Web19}
\bibcite{Web:20}{LS:Web20}
\bibcite{Web:21}{LS:Web21}
\bibcite{Web:22}{LS:Web22}
\bibcite{Web:23}{LS:Web23}
\bibcite{Web:24}{LS:Web24}
\bibcite{Web:25}{LS:Web25}
\bibcite{Web:26}{LS:Web26}
\bibcite{Web:27}{LS:Web27}
\bibcite{Web:28}{LS:Web28}
\bibcite{Web:29}{LS:Web29}
\bibcite{Web:30}{LS:Web30}
\bibcite{Web:31}{LS:Web31}
\bibcite{Web:32}{LS:Web32}
\bibcite{Web:33}{LS:Web33}
\bibcite{Web:34}{LS:Web34}
\bibcite{Web:35}{LS:Web35}
\bibcite{Web:36}{LS:Web36}
\bibcite{Web:37}{LS:Web37}
\bibcite{Web:38}{LS:Web38}
\bibcite{Web:39}{LS:Web39}
\bibcite{Web:40}{LS:Web40}
\bibcite{Web:41}{LS:Web41}
\bibcite{Web:42}{LS:Web42}
\bibcite{Web:43}{LS:Web43}
\bibcite{Web:44}{LS:Web44}
\bibcite{Web:45}{LS:Web45}
\bibcite{Web:46}{LS:Web46}
\bibcite{Web:47}{LS:Web47}
\bibcite{Web:48}{LS:Web48}
\bibcite{Web:49}{LS:Web49}
\bibcite{Web:50}{LS:Web50}
\bibcite{Web:51}{LS:Web51}
\bibcite{Web:52}{LS:Web52}
\bibcite{Web:53}{LS:Web53}
\bibcite{Web:54}{LS:Web54}
\bibcite{Web:55}{LS:Web55}
\bibcite{Web:56}{LS:Web56}
\bibcite{Web:57}{LS:Web57}
\bibcite{Web:58}{LS:Web58}
\bibcite{Web:59}{LS:Web59}
\bibcite{Web:60}{LS:Web60}
\bibcite{Web:61}{LS:Web61}
\bibcite{Web:62}{LS:Web62}
\bibcite{Web:63}{LS:Web63}
\bibcite{Web:64}{LS:Web64}
\bibcite{Web:65}{LS:Web65}
\bibcite{Web:66}{LS:Web66}
\bibcite{Web:67}{LS:Web67}
\bibcite{Web:68}{LS:Web68}
\bibcite{Web:69}{LS:Web69}
\bibcite{Web:70}{LS:Web70}
\bibcite{Web:71}{LS:Web71}
\bibcite{Web:72}{LS:Web72}
\bibcite{Web:73}{LS:Web73}
\bibcite{Web:74}{LS:Web74}
\bibcite{Web:75}{LS:Web75}
\bibcite{Web:76}{LS:Web76}
\bibcite{Web:77}{LS:Web77}
\bibcite{Web:78}{LS:Web78}
\bibcite{Web:79}{LS:Web79}
\bibcite{Web:80}{LS:Web80}
\bibcite{Web:81}{LS:Web81}
\bibcite{Web:82}{LS:Web82}
\bibcite{Web:83}{LS:Web83}
\bibcite{Web:83}{LS:Web83}
\bibcite{Web:84}{LS:Web84}
\bibcite{Web:85}{LS:Web85}
\bibcite{Web:86}{LS:Web86}
\bibcite{Web:87}{LS:Web87}
\bibcite{Web:88}{LS:Web88}
\bibcite{Web:89}{LS:Web89}
\bibcite{Web:90}{LS:Web90}
\bibcite{Web:91}{LS:Web91}
\bibcite{Web:92}{LS:Web92}
\bibcite{Web:93}{LS:Web93}
\bibcite{Web:94}{LS:Web94}
\bibcite{Web:95}{LS:Web95}
\bibcite{Web:96}{LS:Web96}
\bibcite{Web:97}{LS:Web97}
\bibcite{Web:98}{LS:Web98}
\bibcite{Web:99}{LS:Web99}
\bibcite{Web:100}{LS:Web100}
\bibcite{Web:101}{LS:Web101}
\bibcite{Web:102}{LS:Web102}
\bibcite{Web:103}{LS:Web103}
\bibcite{Web:104}{LS:Web104}
\bibcite{Web:105}{LS:Web105}
\bibcite{Web:106}{LS:Web106}
\bibcite{Web:107}{LS:Web107}
\bibcite{Web:108}{LS:Web108}
\bibcite{Web:109}{LS:Web109}
\bibcite{Web:110}{LS:Web110}
\bibcite{Web:111}{LS:Web111}
\bibcite{Web:112}{LS:Web112}
\bibcite{Web:113}{LS:Web113}
\bibcite{Web:114}{LS:Web114}
\bibcite{Web:115}{LS:Web115}
\bibcite{Web:116}{LS:Web116}
\bibcite{Web:117}{LS:Web117}
\bibcite{Web:118}{LS:Web118}
\bibcite{Web:119}{LS:Web119}
\bibcite{Web:120}{LS:Web120}
\bibcite{Web:121}{LS:Web121}
\bibcite{Web:122}{LS:Web122}
\bibcite{Web:123}{LS:Web123}
\bibcite{Web:124}{LS:Web124}
\bibcite{Web:125}{LS:Web125}
\bibcite{Web:126}{LS:Web126}
\bibcite{Web:127}{LS:Web127}
\bibcite{Web:128}{LS:Web128}
\bibcite{Web:129}{LS:Web129}
\bibcite{Web:130}{LS:Web130}
\gdef \@abspage@last{79}
